{
  "version": 1,
  "width": 104,
  "height": 25,
  "duration": 19.415307,
  "command": null,
  "title": null,
  "env": {
    "TERM": "st-256color",
    "SHELL": "/bin/zsh"
  },
  "stdout": [
    [
      0.070357,
      "\u001b[1m\u001b[7m%\u001b[27m\u001b[1m\u001b[0m                                                                                                       \r \r"
    ],
    [
      0.042577,
      "\r\u001b[0m\u001b[27m\u001b[24m\u001b[J\u001b[1m\u001b[31m\u001b[39m\u001b[0m\u001b[1m\u001b[35m\u001b[39m\u001b[0m\u001b[1m\u001b[34mjamie\u001b[39m\u001b[0m@\u001b[34mTheColonel \u001b[1m\u001b[34m\u001b[33m\u001b[39m\u001b[0m\u001b[1m\u001b[33m\u001b[39m\u001b[0m\u001b[1m\u001b[33m\u001b[39m\u001b[0m\u001b[1m\u001b[31mchef \u001b[39m\u001b[0m\u001b[1muser-cookbook \u001b[0m\u001b[35m(\u001b[39mgit\u001b[35m)\u001b[33m-\u001b[35m[\u001b[32mmaster\u001b[35m]\u001b[39m\u001b[36m*\u001b[39m % \u001b[K"
    ],
    [
      3e-05,
      "\r\r\u001b[?2004h\u001b[0m\u001b[27m\u001b[24m\u001b[J\u001b[1m\u001b[31m\u001b[39m\u001b[0m\u001b[1m\u001b[35m\u001b[39m\u001b[0m\u001b[1m\u001b[34mjamie\u001b[39m\u001b[0m@\u001b[34mTheColonel \u001b[1m\u001b[34m\u001b[33m\u001b[39m\u001b[0m\u001b[1m\u001b[33m\u001b[39m\u001b[0m\u001b[1m\u001b[33m\u001b[39m\u001b[0m\u001b[1m\u001b[31mchef \u001b[39m\u001b[0m\u001b[1muser-cookbook \u001b[0m\u001b[35m(\u001b[39mgit\u001b[35m)\u001b[33m-\u001b[35m[\u001b[32mmaster\u001b[35m]\u001b[39m\u001b[36m*\u001b[39m % \u001b[K\u001b[48C \u001b[49D"
    ],
    [
      0.509089,
      "\u001b[H\u001b[2J\u001b[0m\u001b[27m\u001b[24m\u001b[J\u001b[1m\u001b[31m\u001b[39m\u001b[0m\u001b[1m\u001b[35m\u001b[39m\u001b[0m\u001b[1m\u001b[34mjamie\u001b[39m\u001b[0m@\u001b[34mTheColonel \u001b[1m\u001b[34m\u001b[33m\u001b[39m\u001b[0m\u001b[1m\u001b[33m\u001b[39m\u001b[0m\u001b[1m\u001b[33m\u001b[39m\u001b[0m\u001b[1m\u001b[31mchef \u001b[39m\u001b[0m\u001b[1muser-cookbook \u001b[0m\u001b[35m(\u001b[39mgit\u001b[35m)\u001b[33m-\u001b[35m[\u001b[32mmaster\u001b[35m]\u001b[39m\u001b[36m*\u001b[39m % \u001b[K\u001b[48C \u001b[49D"
    ],
    [
      0.335763,
      "k"
    ],
    [
      0.143973,
      "\bki"
    ],
    [
      0.056033,
      "t"
    ],
    [
      0.216252,
      "c"
    ],
    [
      0.055521,
      "h"
    ],
    [
      0.104049,
      "e"
    ],
    [
      0.096077,
      "n"
    ],
    [
      0.080214,
      " "
    ],
    [
      0.183749,
      "l"
    ],
    [
      0.15207,
      "i"
    ],
    [
      0.07193,
      "s"
    ],
    [
      0.176216,
      "t"
    ],
    [
      0.049407,
      "\u001b[?1l\u001b>\u001b[?2004l\r\r\n"
    ],
    [
      0.686777,
      "W, [2017-10-18T20:14:21.111448 #24417]  WARN -- : You are setting a key that conflicts with a built-in method Hashie::Mash#frozen? defined in Kernel. This can cause unexpected behavior when accessing the key via as a property. You can still access the key via the #[] method.\r\n"
    ],
    [
      2.1e-05,
      "W, [2017-10-18T20:14:21.111575 #24417]  WARN -- : You are setting a key that conflicts with a built-in method Hashie::Mash#frozen? defined in Kernel. This can cause unexpected behavior when accessing the key via as a property. You can still access the key via the #[] method.\r\n"
    ],
    [
      7.4e-05,
      "W, [2017-10-18T20:14:21.111668 #24417]  WARN -- : You are setting a key that conflicts with a built-in method VariaModel::Attributes#frozen? defined in Kernel. This can cause unexpected behavior when accessing the key via as a property. You can still access the key via the #[] method.\r\n"
    ],
    [
      8.1e-05,
      "W, [2017-10-18T20:14:21.111750 #24417]  WARN -- : You are setting a key that conflicts with a built-in method VariaModel::Attributes#frozen? defined in Kernel. This can cause unexpected behavior when accessing the key via as a property. You can still access the key via the #[] method.\r\n"
    ],
    [
      0.003811,
      "W, [2017-10-18T20:14:21.115533 #24417]  WARN -- : You are setting a key that conflicts with a built-in method VariaModel::Attributes#default defined in Hash. This can cause unexpected behavior when accessing the key via as a property. You can still access the key via the #[] method.\r\n"
    ],
    [
      9.3e-05,
      "W, [2017-10-18T20:14:21.115625 #24417]  WARN -- : You are setting a key that conflicts with a built-in method VariaModel::Attributes#default defined in Hash. This can cause unexpected behavior when accessing the key via as a property. You can still access the key via the #[] method.\r\n"
    ],
    [
      0.53767,
      "\u001b[32mInstance\u001b[0m      \u001b[32mDriver\u001b[0m  \u001b[32mProvisioner\u001b[0m  \u001b[32mVerifier\u001b[0m  \u001b[32mTransport\u001b[0m  \u001b[32mLast Action\u001b[0m    \u001b[32mLast Error\u001b[0m\r\nhello-debian\u001b[37m\u001b[0m  Docker\u001b[37m\u001b[0m  ChefZero\u001b[37m\u001b[0m     Inspec\u001b[37m\u001b[0m    Ssh\u001b[37m\u001b[0m        \u001b[31m<Not Created>\u001b[0m  \u001b[37m<None>\u001b[0m\r\n"
    ],
    [
      0.017966,
      "\u001b[1m\u001b[7m%\u001b[27m\u001b[1m\u001b[0m                                                                                                       \r \r"
    ],
    [
      0.048378,
      "\r\u001b[0m\u001b[27m\u001b[24m\u001b[J\u001b[1m\u001b[31m\u001b[39m\u001b[0m\u001b[1m\u001b[35m\u001b[39m\u001b[0m\u001b[1m\u001b[34mjamie\u001b[39m\u001b[0m@\u001b[34mTheColonel \u001b[1m\u001b[34m\u001b[33m\u001b[39m\u001b[0m\u001b[1m\u001b[33m\u001b[39m\u001b[0m\u001b[1m\u001b[33m\u001b[39m\u001b[0m\u001b[1m\u001b[31mchef \u001b[39m\u001b[0m\u001b[1muser-cookbook \u001b[0m\u001b[35m(\u001b[39mgit\u001b[35m)\u001b[33m-\u001b[35m[\u001b[32mmaster\u001b[35m]\u001b[39m\u001b[36m*\u001b[39m % \u001b[K"
    ],
    [
      0.000111,
      "\r\r\u001b[?2004h\u001b[0m\u001b[27m\u001b[24m\u001b[J\u001b[1m\u001b[31m\u001b[39m\u001b[0m\u001b[1m\u001b[35m\u001b[39m\u001b[0m\u001b[1m\u001b[34mjamie\u001b[39m\u001b[0m@\u001b[34mTheColonel \u001b[1m\u001b[34m\u001b[33m\u001b[39m\u001b[0m\u001b[1m\u001b[33m\u001b[39m\u001b[0m\u001b[1m\u001b[33m\u001b[39m\u001b[0m\u001b[1m\u001b[31mchef \u001b[39m\u001b[0m\u001b[1muser-cookbook \u001b[0m\u001b[35m(\u001b[39mgit\u001b[35m)\u001b[33m-\u001b[35m[\u001b[32mmaster\u001b[35m]\u001b[39m\u001b[36m*\u001b[39m % "
    ],
    [
      1.5e-05,
      "\u001b[K\u001b[48C \u001b[49D"
    ],
    [
      0.423789,
      "k"
    ],
    [
      0.151773,
      "\bki"
    ],
    [
      0.063899,
      "t"
    ],
    [
      0.175902,
      "c"
    ],
    [
      0.104065,
      "h"
    ],
    [
      0.087998,
      "e"
    ],
    [
      0.087986,
      "n"
    ],
    [
      0.063936,
      " "
    ],
    [
      0.040008,
      "c"
    ],
    [
      0.352083,
      "a"
    ],
    [
      3e-05,
      "e"
    ],
    [
      0.079821,
      "t"
    ],
    [
      0.232149,
      "\b \b"
    ],
    [
      0.13593,
      "\b \b"
    ],
    [
      0.152041,
      "\b \b"
    ],
    [
      0.32812,
      "\b \b"
    ],
    [
      0.111828,
      "r"
    ],
    [
      0.327964,
      "\b \b"
    ],
    [
      0.128235,
      "c"
    ],
    [
      0.21576,
      "r"
    ],
    [
      0.080122,
      "e"
    ],
    [
      0.071899,
      "a"
    ],
    [
      0.055929,
      "t"
    ],
    [
      0.080031,
      "e"
    ],
    [
      0.128164,
      " "
    ],
    [
      0.423906,
      "h"
    ],
    [
      0.064024,
      "e"
    ],
    [
      0.167896,
      "l"
    ],
    [
      0.144096,
      "l"
    ],
    [
      0.144009,
      "o"
    ],
    [
      0.233117,
      "\u001b[?1l\u001b>\u001b[?2004l\r\r\n"
    ],
    [
      0.355926,
      "-----> Starting Kitchen (v1.15.0)\r\n"
    ],
    [
      0.262552,
      "W, [2017-10-18T20:14:27.194650 #24478]  WARN -- : You are setting a key that conflicts with a built-in method Hashie::Mash#frozen? defined in Kernel. This can cause unexpected behavior when accessing the key via as a property. You can still access the key via the #[] method.\r\nW, [2017-10-18T20:14:27.194753 #24478]  WARN -- : You are setting a key that conflicts with a built-in method Hashie::Mash#frozen? defined in Kernel. This can cause unexpected behavior when accessing the key via as a property. You can still access the key via the #[] method.\r\n"
    ],
    [
      5.3e-05,
      "W, [2017-10-18T20:14:27.194834 #24478]  WARN -- : You are setting a key that conflicts with a built-in method VariaModel::Attributes#frozen? defined in Kernel. This can cause unexpected behavior when accessing the key via as a property. You can still access the key via the #[] method.\r\n"
    ],
    [
      6.8e-05,
      "W, [2017-10-18T20:14:27.194904 #24478]  WARN -- : You are setting a key that conflicts with a built-in method VariaModel::Attributes#frozen? defined in Kernel. This can cause unexpected behavior when accessing the key via as a property. You can still access the key via the #[] method.\r\n"
    ],
    [
      0.003393,
      "W, [2017-10-18T20:14:27.198231 #24478]  WARN -- : You are setting a key that conflicts with a built-in method VariaModel::Attributes#default defined in Hash. This can cause unexpected behavior when accessing the key via as a property. You can still access the key via the #[] method.\r\n"
    ],
    [
      2.4e-05,
      "W, [2017-10-18T20:14:27.198310 #24478]  WARN -- : You are setting a key that conflicts with a built-in method VariaModel::Attributes#default defined in Hash. This can cause unexpected behavior when accessing the key via as a property. You can still access the key via the #[] method.\r\n"
    ],
    [
      0.460571,
      "\u001b[36m-----> Creating <hello-debian>...\u001b[0m\r\n"
    ],
    [
      0.094988,
      "\u001b[36m       Sending build context to Docker daemon  669.2kB\r\u001b[0m\r\n"
    ],
    [
      0.09794,
      "\u001b[36m       Step 1/17 : FROM debian:jessie\u001b[0m\r\n"
    ],
    [
      0.000129,
      "\u001b[36m        ---> 7b0a06c805e8\u001b[0m\r\n"
    ],
    [
      5.4e-05,
      "\u001b[36m       Step 2/17 : RUN dpkg-divert --local --rename --add /sbin/initctl\u001b[0m\r\n"
    ],
    [
      0.000272,
      "\u001b[36m        ---> Using cache\u001b[0m\r\n\u001b[36m        ---> 8131d8058744\u001b[0m\r\n"
    ],
    [
      0.000124,
      "\u001b[36m       Step 3/17 : RUN ln -sf /bin/true /sbin/initctl\u001b[0m\r\n"
    ],
    [
      0.000138,
      "\u001b[36m        ---> Using cache\u001b[0m\r\n"
    ],
    [
      1.7e-05,
      "\u001b[36m        ---> 61a49431166e\u001b[0m\r\n"
    ],
    [
      8e-06,
      "\u001b[36m       Step 4/17 : ENV DEBIAN_FRONTEND noninteractive\u001b[0m\r\n"
    ],
    [
      0.000326,
      "\u001b[36m        ---> Using cache\u001b[0m\r\n\u001b[36m        ---> bd195875bfc6\u001b[0m\r\n"
    ],
    [
      2.6e-05,
      "\u001b[36m       Step 5/17 : ENV container docker\u001b[0m\r\n\u001b[36m        ---> Using cache\u001b[0m\r\n\u001b[36m        ---> 23e222c505ea\u001b[0m\r\n"
    ],
    [
      0.00011,
      "\u001b[36m       Step 6/17 : RUN apt-get update\u001b[0m\r\n"
    ],
    [
      0.000294,
      "\u001b[36m        ---> Using cache\u001b[0m\r\n"
    ],
    [
      1.1e-05,
      "\u001b[36m        ---> d3e511a6c41d\u001b[0m\r\n\u001b[36m       Step 7/17 : RUN apt-get install -y sudo openssh-server curl lsb-release\u001b[0m\r\n"
    ],
    [
      1.9e-05,
      "\u001b[36m        ---> Using cache\u001b[0m\r\n"
    ],
    [
      9e-06,
      "\u001b[36m        ---> 0d0afe41a3d1\u001b[0m\r\n"
    ],
    [
      4.8e-05,
      "\u001b[36m       Step 8/17 : RUN if ! getent passwd kitchen; then                 useradd -d /home/kitchen -m -s /bin/bash -p '*' kitchen;               fi\u001b[0m\r\n"
    ],
    [
      0.000466,
      "\u001b[36m        ---> Using cache\u001b[0m\r\n"
    ],
    [
      1.3e-05,
      "\u001b[36m        ---> 2772c3f21673\u001b[0m\r\n"
    ],
    [
      1.9e-05,
      "\u001b[36m       Step 9/17 : RUN echo \"kitchen ALL=(ALL) NOPASSWD: ALL\" >> /etc/sudoers\u001b[0m\r\n"
    ],
    [
      1.8e-05,
      "\u001b[36m        ---> Using cache\u001b[0m\r\n"
    ],
    [
      1.7e-05,
      "\u001b[36m        ---> 627859f8c005\u001b[0m\r\n"
    ],
    [
      1.7e-05,
      "\u001b[36m       Step 10/17 : RUN echo \"Defaults !requiretty\" >> /etc/sudoers\u001b[0m\r\n"
    ],
    [
      1.9e-05,
      "\u001b[36m        ---> Using cache\u001b[0m\r\n"
    ],
    [
      1.7e-05,
      "\u001b[36m        ---> ec57cb331180\u001b[0m\r\n"
    ],
    [
      1.6e-05,
      "\u001b[36m       Step 11/17 : RUN mkdir -p /home/kitchen/.ssh\u001b[0m\r\n"
    ],
    [
      0.000369,
      "\u001b[36m        ---> Using cache\u001b[0m\r\n"
    ],
    [
      2.5e-05,
      "\u001b[36m        ---> bc5a5bbc644b\u001b[0m\r\n\u001b[36m       Step 12/17 : RUN chown -R kitchen /home/kitchen/.ssh\u001b[0m\r\n"
    ],
    [
      1.2e-05,
      "\u001b[36m        ---> Using cache\u001b[0m\r\n"
    ],
    [
      3e-05,
      "\u001b[36m        ---> cbe497ea7a89\u001b[0m\r\n"
    ],
    [
      1.1e-05,
      "\u001b[36m       Step 13/17 : RUN chmod 0700 /home/kitchen/.ssh\u001b[0m\r\n"
    ],
    [
      0.000409,
      "\u001b[36m        ---> Using cache\u001b[0m\r\n"
    ],
    [
      2e-05,
      "\u001b[36m        ---> 46ab190852c0\u001b[0m\r\n"
    ],
    [
      2.5e-05,
      "\u001b[36m       Step 14/17 : RUN touch /home/kitchen/.ssh/authorized_keys\u001b[0m\r\n"
    ],
    [
      1.1e-05,
      "\u001b[36m        ---> Using cache\u001b[0m\r\n"
    ],
    [
      2.8e-05,
      "\u001b[36m        ---> ea3a6ea8111d\u001b[0m\r\n"
    ],
    [
      2.4e-05,
      "\u001b[36m       Step 15/17 : RUN chown kitchen /home/kitchen/.ssh/authorized_keys\u001b[0m\r\n"
    ],
    [
      0.000316,
      "\u001b[36m        ---> Using cache\u001b[0m\r\n\u001b[36m        ---> 9310444ad7d8\u001b[0m\r\n\u001b[36m       Step 16/17 : RUN chmod 0600 /home/kitchen/.ssh/authorized_keys\u001b[0m\r\n"
    ],
    [
      1.2e-05,
      "\u001b[36m        ---> Using cache\u001b[0m\r\n"
    ],
    [
      1e-05,
      "\u001b[36m        ---> 2362a7de8055\u001b[0m\r\n"
    ],
    [
      2.4e-05,
      "\u001b[36m       Step 17/17 : RUN echo ssh-rsa\\ AAAAB3NzaC1yc2EAAAADAQABAAABAQCZEXZyeKW3lLDNLD/T6D0Gp07gsy0daruDfgS0o4cdZyWL5Xw5IhwuslqurIR8CtP\\+Vg1SDMx1VDQfU/EUT3yAHalWfL4jqILex6cWsuLQhWQBkL08CWaJFtweBpIfWrr35TPo95n8hyE/8elPCIyqmBFgfx/HJwDd6wI18bBTjBz4zcLktASZBu9\\+SqMWxEoweHkS\\+CmK5jE2JqLOmN7LqybeM66Kt\\+KcrYa2P2VjPEySz2gtEvPTs99aJ4wUOI6j3BAAnwl8f5Ry7HdAfypEpr1weGSyRvTt1aaPwGuhhXRFXOJkUbgLmfrkP\\+ioHDqnydI5jjo5VyPZz/TcJtN7\\ kitchen_docker_key >> /home/kitchen/.ssh/authorized_keys\u001b[0m\r\n"
    ],
    [
      0.000683,
      "\u001b[36m        ---> Using cache\u001b[0m\r\n\u001b[36m        ---> f91c6ec0e29c\u001b[0m\r\n"
    ],
    [
      0.018232,
      "\u001b[36m       Successfully built f91c6ec0e29c\u001b[0m\r\n"
    ],
    [
      0.454921,
      "\u001b[36m       c8fdbe3f763c3c0de42c8b4d4529636c02e17a1d773d883e5e96b0e4f64af03f\u001b[0m\r\n"
    ],
    [
      0.721336,
      "\u001b[36m       0.0.0.0:32770\u001b[0m\r\n"
    ],
    [
      0.012264,
      "\u001b[36m       Waiting for SSH service on localhost:32770, retrying in 3 seconds\u001b[0m\r\n"
    ],
    [
      3.094378,
      "\u001b[36m       [SSH] Established\u001b[0m\r\n"
    ],
    [
      0.001653,
      "\u001b[36m       Finished creating <hello-debian> (0m4.50s).\u001b[0m\r\n"
    ],
    [
      0.000255,
      "-----> Kitchen is finished. (0m5.23s)\r\n"
    ],
    [
      0.029676,
      "\u001b[1m\u001b[7m%\u001b[27m\u001b[1m\u001b[0m                                                                                                       \r \r"
    ],
    [
      0.040245,
      "\r\u001b[0m\u001b[27m\u001b[24m\u001b[J\u001b[1m\u001b[31m\u001b[39m\u001b[0m\u001b[1m\u001b[35m\u001b[39m\u001b[0m\u001b[1m\u001b[34mjamie\u001b[39m\u001b[0m@\u001b[34mTheColonel \u001b[1m\u001b[34m\u001b[33m\u001b[39m\u001b[0m\u001b[1m\u001b[33m\u001b[39m\u001b[0m\u001b[1m\u001b[33m\u001b[39m\u001b[0m\u001b[1m\u001b[31mchef \u001b[39m\u001b[0m\u001b[1muser-cookbook \u001b[0m\u001b[35m(\u001b[39mgit\u001b[35m)\u001b[33m-\u001b[35m[\u001b[32mmaster\u001b[35m]\u001b[39m\u001b[36m*\u001b[39m % \u001b[K"
    ],
    [
      4.3e-05,
      "\r\r\u001b[?2004h\u001b[0m\u001b[27m\u001b[24m\u001b[J\u001b[1m\u001b[31m\u001b[39m\u001b[0m\u001b[1m\u001b[35m\u001b[39m\u001b[0m\u001b[1m\u001b[34mjamie\u001b[39m\u001b[0m@\u001b[34mTheColonel \u001b[1m\u001b[34m\u001b[33m\u001b[39m\u001b[0m\u001b[1m\u001b[33m\u001b[39m\u001b[0m\u001b[1m\u001b[33m\u001b[39m\u001b[0m\u001b[1m\u001b[31mchef \u001b[39m\u001b[0m\u001b[1muser-cookbook \u001b[0m\u001b[35m(\u001b[39mgit\u001b[35m)\u001b[33m-\u001b[35m[\u001b[32mmaster\u001b[35m]\u001b[39m\u001b[36m*\u001b[39m % "
    ],
    [
      1e-05,
      "\u001b[K\u001b[48C \u001b[49D"
    ],
    [
      0.554088,
      "k"
    ],
    [
      0.20788,
      "\bki"
    ],
    [
      0.088056,
      "t"
    ],
    [
      0.216024,
      "c"
    ],
    [
      0.064006,
      "h"
    ],
    [
      0.151955,
      "e"
    ],
    [
      0.071881,
      "n"
    ],
    [
      0.0801,
      " "
    ],
    [
      0.54411,
      "l"
    ],
    [
      0.184015,
      "i"
    ],
    [
      0.071881,
      "s"
    ],
    [
      0.200083,
      "t"
    ],
    [
      0.049829,
      "\u001b[?1l\u001b>\u001b[?2004l\r\r\n"
    ],
    [
      0.611354,
      "W, [2017-10-18T20:14:35.324148 #24698]  WARN -- : You are setting a key that conflicts with a built-in method Hashie::Mash#frozen? defined in Kernel. This can cause unexpected behavior when accessing the key via as a property. You can still access the key via the #[] method.\r\nW, [2017-10-18T20:14:35.324271 #24698]  WARN -- : You are setting a key that conflicts with a built-in method Hashie::Mash#frozen? defined in Kernel. This can cause unexpected behavior when accessing the key via as a property. You can still access the key via the #[] method.\r\n"
    ],
    [
      7e-05,
      "W, [2017-10-18T20:14:35.324362 #24698]  WARN -- : You are setting a key that conflicts with a built-in method VariaModel::Attributes#frozen? defined in Kernel. This can cause unexpected behavior when accessing the key via as a property. You can still access the key via the #[] method.\r\n"
    ],
    [
      8.4e-05,
      "W, [2017-10-18T20:14:35.324443 #24698]  WARN -- : You are setting a key that conflicts with a built-in method VariaModel::Attributes#frozen? defined in Kernel. This can cause unexpected behavior when accessing the key via as a property. You can still access the key via the #[] method.\r\n"
    ],
    [
      0.004039,
      "W, [2017-10-18T20:14:35.328438 #24698]  WARN -- : You are setting a key that conflicts with a built-in method VariaModel::Attributes#default defined in Hash. This can cause unexpected behavior when accessing the key via as a property. You can still access the key via the #[] method.\r\n"
    ],
    [
      4.8e-05,
      "W, [2017-10-18T20:14:35.328532 #24698]  WARN -- : You are setting a key that conflicts with a built-in method VariaModel::Attributes#default defined in Hash. This can cause unexpected behavior when accessing the key via as a property. You can still access the key via the #[] method.\r\n"
    ],
    [
      0.476806,
      "\u001b[32mInstance\u001b[0m      \u001b[32mDriver\u001b[0m  \u001b[32mProvisioner\u001b[0m  \u001b[32mVerifier\u001b[0m  \u001b[32mTransport\u001b[0m  \u001b[32mLast Action\u001b[0m  \u001b[32mLast Error\u001b[0m\r\nhello-debian\u001b[37m\u001b[0m  Docker\u001b[37m\u001b[0m  ChefZero\u001b[37m\u001b[0m     Inspec\u001b[37m\u001b[0m    Ssh\u001b[37m\u001b[0m        \u001b[36mCreated\u001b[0m      \u001b[37m<None>\u001b[0m\r\n"
    ],
    [
      0.015113,
      "\u001b[1m\u001b[7m%\u001b[27m\u001b[1m\u001b[0m                                                                                                       \r \r"
    ],
    [
      0.032316,
      "\r\u001b[0m\u001b[27m\u001b[24m\u001b[J\u001b[1m\u001b[31m\u001b[39m\u001b[0m\u001b[1m\u001b[35m\u001b[39m\u001b[0m\u001b[1m\u001b[34mjamie\u001b[39m\u001b[0m@\u001b[34mTheColonel \u001b[1m\u001b[34m\u001b[33m\u001b[39m\u001b[0m\u001b[1m\u001b[33m\u001b[39m\u001b[0m\u001b[1m\u001b[33m\u001b[39m\u001b[0m\u001b[1m\u001b[31mchef \u001b[39m\u001b[0m\u001b[1muser-cookbook \u001b[0m\u001b[35m(\u001b[39mgit\u001b[35m)\u001b[33m-\u001b[35m[\u001b[32mmaster\u001b[35m]\u001b[39m\u001b[36m*\u001b[39m % \u001b[K"
    ],
    [
      2.2e-05,
      "\r\r\u001b[?2004h\u001b[0m\u001b[27m\u001b[24m\u001b[J\u001b[1m\u001b[31m\u001b[39m\u001b[0m\u001b[1m\u001b[35m\u001b[39m\u001b[0m\u001b[1m\u001b[34mjamie\u001b[39m\u001b[0m@\u001b[34mTheColonel \u001b[1m\u001b[34m\u001b[33m\u001b[39m\u001b[0m\u001b[1m\u001b[33m\u001b[39m\u001b[0m\u001b[1m\u001b[33m\u001b[39m\u001b[0m\u001b[1m\u001b[31mchef \u001b[39m\u001b[0m\u001b[1muser-cookbook \u001b[0m\u001b[35m(\u001b[39mgit\u001b[35m)\u001b[33m-\u001b[35m[\u001b[32mmaster\u001b[35m]\u001b[39m\u001b[36m*\u001b[39m % \u001b[K\u001b[48C \u001b[49D"
    ],
    [
      1.625973,
      "\u001b[?2004l\r\r\n"
    ]
  ]
}